<svg width="10" height="11" viewBox="0 0 10 11" fill="none" xmlns="http://www.w3.org/2000/svg">
<path d="M7.27965 5.628C7.27601 5.0073 7.55724 4.5395 8.12515 4.19457C7.80752 3.73951 7.32698 3.48923 6.69354 3.44099C6.09377 3.39367 5.43758 3.79048 5.19731 3.79048C4.94339 3.79048 4.36273 3.45737 3.90585 3.45737C2.96297 3.47194 1.96094 4.20913 1.96094 5.709C1.96094 6.15223 2.04194 6.61001 2.20394 7.08145C2.42055 7.70215 3.20142 9.22296 4.01598 9.19838C4.44191 9.18837 4.74316 8.89622 5.29742 8.89622C5.8353 8.89622 6.1138 9.19838 6.58888 9.19838C7.41071 9.18655 8.11696 7.80409 8.32265 7.18157C7.2205 6.66189 7.27965 5.65985 7.27965 5.628ZM6.32312 2.85215C6.78455 2.30426 6.74269 1.80551 6.72903 1.62622C6.3213 1.64988 5.84986 1.90381 5.58138 2.21598C5.28559 2.5509 5.11176 2.965 5.14907 3.43189C5.58957 3.46556 5.99184 3.23895 6.32312 2.85215Z" fill="#313131"/>
</svg>
