<svg width="200" height="8" viewBox="0 0 200 8" fill="none" xmlns="http://www.w3.org/2000/svg">
<rect opacity="0.25" x="0.384766" y="3.90979" width="76.1958" height="0.194158" fill="#313131"/>
<path opacity="0.5" d="M84.9302 6.04489C84.5787 6.04489 84.2579 5.96334 83.968 5.80025C83.678 5.63353 83.4479 5.40339 83.2775 5.10983C83.1108 4.81263 83.0275 4.4792 83.0275 4.10952C83.0275 3.73985 83.1108 3.40823 83.2775 3.11466C83.4479 2.81747 83.678 2.58733 83.968 2.42423C84.2579 2.25752 84.5787 2.17416 84.9302 2.17416C85.2854 2.17416 85.608 2.25752 85.8979 2.42423C86.1878 2.58733 86.4162 2.81566 86.5829 3.10922C86.7496 3.40279 86.833 3.73622 86.833 4.10952C86.833 4.48283 86.7496 4.81626 86.5829 5.10983C86.4162 5.40339 86.1878 5.63353 85.8979 5.80025C85.608 5.96334 85.2854 6.04489 84.9302 6.04489ZM84.9302 5.61541C85.1948 5.61541 85.4322 5.5538 85.6424 5.43057C85.8562 5.30735 86.0229 5.13157 86.1425 4.90324C86.2658 4.67491 86.3274 4.41034 86.3274 4.10952C86.3274 3.80508 86.2658 3.54051 86.1425 3.31581C86.0229 3.08748 85.858 2.9117 85.6478 2.78847C85.4376 2.66525 85.1984 2.60363 84.9302 2.60363C84.662 2.60363 84.4228 2.66525 84.2126 2.78847C84.0024 2.9117 83.8357 3.08748 83.7125 3.31581C83.5929 3.54051 83.5331 3.80508 83.5331 4.10952C83.5331 4.41034 83.5929 4.67491 83.7125 4.90324C83.8357 5.13157 84.0024 5.30735 84.2126 5.43057C84.4264 5.5538 84.6656 5.61541 84.9302 5.61541ZM87.9808 3.51152C88.0678 3.34118 88.191 3.20889 88.3504 3.11466C88.5135 3.02043 88.7111 2.97331 88.943 2.97331V3.48434H88.8125C88.258 3.48434 87.9808 3.78515 87.9808 4.38678V6.00684H87.4861V3.02768H87.9808V3.51152ZM91.4582 1.98388V6.00684H90.9635V1.98388H91.4582ZM93.6006 6.05576C93.3216 6.05576 93.0679 5.99234 92.8395 5.86549C92.6148 5.73864 92.4372 5.55924 92.3068 5.32728C92.1799 5.0917 92.1165 4.81988 92.1165 4.51182C92.1165 4.20738 92.1817 3.93918 92.3122 3.70723C92.4463 3.47165 92.6275 3.29225 92.8558 3.16902C93.0842 3.04217 93.3397 2.97875 93.6224 2.97875C93.9051 2.97875 94.1606 3.04217 94.3889 3.16902C94.6172 3.29225 94.7966 3.46984 94.9271 3.70179C95.0612 3.93375 95.1283 4.20376 95.1283 4.51182C95.1283 4.81988 95.0594 5.0917 94.9217 5.32728C94.7876 5.55924 94.6046 5.73864 94.3726 5.86549C94.1407 5.99234 93.8833 6.05576 93.6006 6.05576ZM93.6006 5.62085C93.7782 5.62085 93.9449 5.57917 94.1008 5.49581C94.2566 5.41245 94.3817 5.28742 94.4759 5.1207C94.5738 4.95398 94.6227 4.75102 94.6227 4.51182C94.6227 4.27262 94.5756 4.06966 94.4813 3.90294C94.3871 3.73622 94.2639 3.613 94.1117 3.53326C93.9594 3.4499 93.7945 3.40823 93.6169 3.40823C93.4357 3.40823 93.269 3.4499 93.1168 3.53326C92.9682 3.613 92.8486 3.73622 92.758 3.90294C92.6674 4.06966 92.6221 4.27262 92.6221 4.51182C92.6221 4.75465 92.6656 4.95942 92.7525 5.12614C92.8432 5.29285 92.9628 5.41789 93.1114 5.50125C93.2599 5.58098 93.423 5.62085 93.6006 5.62085ZM97.0074 2.97875C97.2647 2.97875 97.4894 3.03492 97.6815 3.14728C97.8772 3.25963 98.0222 3.40098 98.1164 3.57132V3.02768H98.6165V6.07207C98.6165 6.34389 98.5586 6.58491 98.4426 6.79512C98.3266 7.00895 98.1599 7.17567 97.9424 7.29527C97.7286 7.41487 97.4785 7.47467 97.1922 7.47467C96.8008 7.47467 96.4746 7.38225 96.2136 7.19741C95.9527 7.01257 95.7987 6.76069 95.7515 6.44175H96.2408C96.2952 6.62296 96.4075 6.76794 96.5779 6.87666C96.7482 6.98902 96.953 7.04519 97.1922 7.04519C97.464 7.04519 97.6851 6.96002 97.8554 6.78968C98.0294 6.61934 98.1164 6.38014 98.1164 6.07207V5.44688C98.0185 5.62085 97.8736 5.76582 97.6815 5.8818C97.4894 5.99778 97.2647 6.05576 97.0074 6.05576C96.7428 6.05576 96.5018 5.99053 96.2843 5.86005C96.0705 5.72958 95.902 5.54655 95.7787 5.31097C95.6555 5.0754 95.5939 4.8072 95.5939 4.50638C95.5939 4.20194 95.6555 3.93556 95.7787 3.70723C95.902 3.47527 96.0705 3.29587 96.2843 3.16902C96.5018 3.04217 96.7428 2.97875 97.0074 2.97875ZM98.1164 4.51182C98.1164 4.28711 98.0711 4.0914 97.9805 3.92469C97.8899 3.75797 97.7666 3.63112 97.6108 3.54414C97.4586 3.45353 97.2901 3.40823 97.1052 3.40823C96.9204 3.40823 96.7518 3.45172 96.5996 3.5387C96.4474 3.62568 96.326 3.75253 96.2354 3.91925C96.1448 4.08597 96.0995 4.28168 96.0995 4.50638C96.0995 4.73471 96.1448 4.93405 96.2354 5.10439C96.326 5.27111 96.4474 5.39977 96.5996 5.49038C96.7518 5.57736 96.9204 5.62085 97.1052 5.62085C97.2901 5.62085 97.4586 5.57736 97.6108 5.49038C97.7666 5.39977 97.8899 5.27111 97.9805 5.10439C98.0711 4.93405 98.1164 4.73652 98.1164 4.51182ZM99.7081 2.54383C99.6138 2.54383 99.5341 2.51122 99.4689 2.44598C99.4036 2.38074 99.371 2.30101 99.371 2.20678C99.371 2.11254 99.4036 2.03281 99.4689 1.96757C99.5341 1.90234 99.6138 1.86972 99.7081 1.86972C99.7987 1.86972 99.8748 1.90234 99.9364 1.96757C100.002 2.03281 100.034 2.11254 100.034 2.20678C100.034 2.30101 100.002 2.38074 99.9364 2.44598C99.8748 2.51122 99.7987 2.54383 99.7081 2.54383ZM99.9473 3.02768V6.00684H99.4526V3.02768H99.9473ZM102.242 2.97331C102.604 2.97331 102.898 3.08385 103.123 3.30493C103.347 3.52239 103.46 3.8377 103.46 4.25087V6.00684H102.97V4.32154C102.97 4.02435 102.896 3.79784 102.748 3.64199C102.599 3.48252 102.396 3.40279 102.139 3.40279C101.878 3.40279 101.669 3.48434 101.513 3.64743C101.361 3.81052 101.285 4.04791 101.285 4.3596V6.00684H100.79V3.02768H101.285V3.45172C101.383 3.2995 101.515 3.18171 101.682 3.09835C101.852 3.01499 102.039 2.97331 102.242 2.97331ZM109.686 3.02768L108.756 6.00684H108.245L107.528 3.64199L106.81 6.00684H106.299L105.364 3.02768H105.869L106.554 5.52843L107.294 3.02768H107.799L108.522 5.53387L109.196 3.02768H109.686ZM110.432 2.54383C110.338 2.54383 110.258 2.51122 110.193 2.44598C110.128 2.38074 110.095 2.30101 110.095 2.20678C110.095 2.11254 110.128 2.03281 110.193 1.96757C110.258 1.90234 110.338 1.86972 110.432 1.86972C110.523 1.86972 110.599 1.90234 110.661 1.96757C110.726 2.03281 110.758 2.11254 110.758 2.20678C110.758 2.30101 110.726 2.38074 110.661 2.44598C110.599 2.51122 110.523 2.54383 110.432 2.54383ZM110.671 3.02768V6.00684H110.177V3.02768H110.671ZM112.118 3.43541V5.19137C112.118 5.33634 112.149 5.43964 112.21 5.50125C112.272 5.55924 112.379 5.58823 112.531 5.58823H112.895V6.00684H112.45C112.174 6.00684 111.968 5.94341 111.83 5.81656C111.692 5.68971 111.623 5.48131 111.623 5.19137V3.43541H111.237V3.02768H111.623V2.27745H112.118V3.02768H112.895V3.43541H112.118ZM114.974 2.97331C115.198 2.97331 115.401 3.02224 115.582 3.12009C115.764 3.21433 115.905 3.35749 116.007 3.54957C116.112 3.74166 116.164 3.97543 116.164 4.25087V6.00684H115.675V4.32154C115.675 4.02435 115.601 3.79784 115.452 3.64199C115.303 3.48252 115.1 3.40279 114.843 3.40279C114.582 3.40279 114.374 3.48434 114.218 3.64743C114.066 3.81052 113.99 4.04791 113.99 4.3596V6.00684H113.495V1.98388H113.99V3.45172C114.087 3.2995 114.222 3.18171 114.392 3.09835C114.566 3.01499 114.76 2.97331 114.974 2.97331Z" fill="#313131"/>
<rect opacity="0.25" x="123.007" y="3.90979" width="76.1958" height="0.194158" fill="#313131"/>
</svg>
